[["Q", "U", "Y", "Q", "X", "O", "R", "R", "U", "V"],
 ["S", "Y", "T", "B", "S", " ", "Z", "H", "N", "J"],
 ["O", "O", "L", "K", " ", "A", "R", "P", "R", "B"],
 ["Y", "N", "S", " ", "U", "I", "W", "U", "Y", "B"],
 ["S", "K", "X", "S", "P", "O", "Z", "Z", "F", "F"],
 ["K", "Q", "Z", "G", "W", "S", "X", "R", "R", "R"],
 ["G", "Z", "W", "L", "V", "Y", "L", "Y", "P", "T"],
 ["T", "T", "F", "F", "V", "T", "D", "T", "E", "G"],
 ["S", "G", "P", "J", "W", "W", "N", "C", "F", "D"],
 ["J", "T", "W", "V", "E", "A", "M", "T", "P", "J"]]